14:32:14.603 INFO - Selenium build info: version: '3.8.1', revision: '6e95a6684b'
14:32:14.603 INFO - Launching a standalone Selenium Server
2018-02-13 14:32:14.868:INFO::main: Logging initialized @931ms to org.seleniumhq.jetty9.util.log.StdErrLog
14:32:14.978 INFO - Using `new FirefoxOptions()` is preferred to `DesiredCapabilities.firefox()`
14:32:15.040 INFO - Using `new ChromeOptions()` is preferred to `DesiredCapabilities.chrome()`
14:32:15.056 INFO - Using `new EdgeOptions()` is preferred to `DesiredCapabilities.edge()`
14:32:15.056 INFO - Driver class not found: com.opera.core.systems.OperaDriver
14:32:15.056 INFO - Using `new OperaOptions()` is preferred to `DesiredCapabilities.operaBlink()`
14:32:15.056 INFO - Using `new SafariOptions()` is preferred to `DesiredCapabilities.safari()`
14:32:15.056 INFO - Driver class not found: org.openqa.selenium.phantomjs.PhantomJSDriver
14:32:15.150 INFO - Driver provider class org.openqa.selenium.safari.SafariDriver registration is skipped:
 registration capabilities Capabilities {browserName: safari, platform: MAC, version: } does not match the current platform VISTA
14:32:15.243 INFO - Using `new ChromeOptions()` is preferred to `DesiredCapabilities.chrome()`
14:32:15.243 INFO - Using `new EdgeOptions()` is preferred to `DesiredCapabilities.edge()`
14:32:15.243 INFO - Using `new FirefoxOptions()` is preferred to `DesiredCapabilities.firefox()`
14:32:15.243 INFO - Using `new OperaOptions()` is preferred to `DesiredCapabilities.operaBlink()`
14:32:15.243 INFO - Using `new SafariOptions()` is preferred to `DesiredCapabilities.safari()`
14:32:15.275 INFO - Using the passthrough mode handler
2018-02-13 14:32:15.353:INFO:osjs.Server:main: jetty-9.4.7.v20170914
2018-02-13 14:32:15.431:WARN:osjs.SecurityHandler:main: ServletContext@o.s.j.s.ServletContextHandler@1aab78{/,null,STARTING} has uncovered http methods for path: /
2018-02-13 14:32:15.446:INFO:osjsh.ContextHandler:main: Started o.s.j.s.ServletContextHandler@1aab78{/,null,AVAILABLE}
2018-02-13 14:32:15.540:INFO:osjs.AbstractConnector:main: Started ServerConnector@da0940{HTTP/1.1,[http/1.1]}{0.0.0.0:5555}
2018-02-13 14:32:15.540:INFO:osjs.Server:main: Started @1605ms
14:32:15.540 INFO - Selenium Server is up and running
2018-02-13 14:32:19.900:INFO:osjshC.ROOT:qtp30201115-15: org.openqa.selenium.remote.server.WebDriverServlet-1f13d6e: Initialising WebDriverServlet
14:32:20.244 INFO - Found handler: org.openqa.selenium.remote.server.commandhandler.BeginSession@1f1ba2e
14:32:20.306 INFO - /session: Executing POST on /session (handler: BeginSession)
14:32:20.587 INFO - Capabilities are: Capabilities {acceptSslCerts: true, browserName: Chrome, javascriptEnabled: true}
14:32:20.603 INFO - Capabilities are: Capabilities {browserName: Chrome}
14:32:20.603 INFO - Using default factory: org.openqa.selenium.chrome.ChromeDriverService
Starting ChromeDriver 2.33.506120 (e3e53437346286c0bc2d2dc9aa4915ba81d9023f) on port 46687
Only local connections are allowed.
14:32:41.535 INFO - Detected dialect: OSS
14:32:43.301 INFO - Found handler: org.openqa.selenium.remote.server.ServicedSession@196f8c0
14:32:43.301 INFO - Handler thread for session 7bbb45e40f21a03f7932c3dfe0149f45 (chrome): Executing POST on /session/7bbb45e40f21a03f7932c3dfe0149f45/window/current/maximize (handler: ServicedSession)
14:32:43.317 INFO - To upstream: 
14:32:44.639 INFO - To downstream: {"sessionId":"7bbb45e40f21a03f7932c3dfe0149f45","status":0,"value":null}
14:32:44.655 INFO - Found handler: org.openqa.selenium.remote.server.ServicedSession@196f8c0
14:32:44.655 INFO - Handler thread for session 7bbb45e40f21a03f7932c3dfe0149f45 (chrome): Executing DELETE on /session/7bbb45e40f21a03f7932c3dfe0149f45/cookie (handler: ServicedSession)
14:32:44.983 INFO - To downstream: {"sessionId":"7bbb45e40f21a03f7932c3dfe0149f45","status":0,"value":null}
14:32:44.983 INFO - Found handler: org.openqa.selenium.remote.server.ServicedSession@196f8c0
14:32:44.983 INFO - Handler thread for session 7bbb45e40f21a03f7932c3dfe0149f45 (chrome): Executing POST on /session/7bbb45e40f21a03f7932c3dfe0149f45/url (handler: ServicedSession)
14:32:44.998 INFO - To upstream: {"url":"https://afcore-qai.mercer.com/DocProdCTA.tpz?ClientId=QASTD1"}
14:33:21.808 INFO - To downstream: {"sessionId":"7bbb45e40f21a03f7932c3dfe0149f45","status":0,"value":null}
14:33:21.840 INFO - Found handler: org.openqa.selenium.remote.server.ServicedSession@196f8c0
14:33:21.840 INFO - Handler thread for session 7bbb45e40f21a03f7932c3dfe0149f45 (chrome): Executing POST on /session/7bbb45e40f21a03f7932c3dfe0149f45/timeouts/implicit_wait (handler: ServicedSession)
14:33:21.855 INFO - To upstream: {"ms":20000}
14:33:21.871 INFO - To downstream: {"sessionId":"7bbb45e40f21a03f7932c3dfe0149f45","status":0,"value":null}
14:33:21.902 INFO - Found handler: org.openqa.selenium.remote.server.ServicedSession@196f8c0
14:33:21.902 INFO - Handler thread for session 7bbb45e40f21a03f7932c3dfe0149f45 (chrome): Executing POST on /session/7bbb45e40f21a03f7932c3dfe0149f45/elements (handler: ServicedSession)
14:33:21.918 INFO - To upstream: {"using":"css selector","value":"body"}
14:33:22.652 INFO - To downstream: {"sessionId":"7bbb45e40f21a03f7932c3dfe0149f45","status":0,"value":[{"ELEMENT":"0.9258060271592776-1"}]}
14:33:22.668 INFO - Found handler: org.openqa.selenium.remote.server.ServicedSession@196f8c0
14:33:22.668 INFO - Handler thread for session 7bbb45e40f21a03f7932c3dfe0149f45 (chrome): Executing POST on /session/7bbb45e40f21a03f7932c3dfe0149f45/element/0.9258060271592776-1/elements (handler: ServicedSession)
14:33:22.683 INFO - To upstream: {"using":"xpath","value":"//a[contains(text(),'Click here to go to AdHoc File upload page')]"}
14:33:24.543 INFO - To downstream: {"sessionId":"7bbb45e40f21a03f7932c3dfe0149f45","status":0,"value":[{"ELEMENT":"0.9258060271592776-2"}]}
14:33:24.605 INFO - Found handler: org.openqa.selenium.remote.server.ServicedSession@196f8c0
14:33:24.605 INFO - Handler thread for session 7bbb45e40f21a03f7932c3dfe0149f45 (chrome): Executing GET on /session/7bbb45e40f21a03f7932c3dfe0149f45/element/0.9258060271592776-2/displayed (handler: ServicedSession)
14:33:27.355 INFO - To downstream: {"sessionId":"7bbb45e40f21a03f7932c3dfe0149f45","status":0,"value":true}
14:33:27.355 INFO - Found handler: org.openqa.selenium.remote.server.ServicedSession@196f8c0
14:33:27.371 INFO - Handler thread for session 7bbb45e40f21a03f7932c3dfe0149f45 (chrome): Executing POST on /session/7bbb45e40f21a03f7932c3dfe0149f45/element (handler: ServicedSession)
14:33:27.371 INFO - To upstream: {"using":"css selector","value":"body"}
14:33:28.058 INFO - To downstream: {"sessionId":"7bbb45e40f21a03f7932c3dfe0149f45","status":0,"value":{"ELEMENT":"0.9258060271592776-1"}}
14:33:28.058 INFO - Found handler: org.openqa.selenium.remote.server.ServicedSession@196f8c0
14:33:28.058 INFO - Handler thread for session 7bbb45e40f21a03f7932c3dfe0149f45 (chrome): Executing POST on /session/7bbb45e40f21a03f7932c3dfe0149f45/element/0.9258060271592776-1/element (handler: ServicedSession)
14:33:28.074 INFO - To upstream: {"using":"xpath","value":"//a[contains(text(),'Click here to go to AdHoc File upload page')]"}
14:33:29.348 INFO - To downstream: {"sessionId":"7bbb45e40f21a03f7932c3dfe0149f45","status":0,"value":{"ELEMENT":"0.9258060271592776-2"}}
14:33:29.370 INFO - Found handler: org.openqa.selenium.remote.server.ServicedSession@196f8c0
14:33:29.371 INFO - Handler thread for session 7bbb45e40f21a03f7932c3dfe0149f45 (chrome): Executing POST on /session/7bbb45e40f21a03f7932c3dfe0149f45/element/0.9258060271592776-2/click (handler: ServicedSession)
14:33:29.374 INFO - To upstream: 
14:33:39.572 INFO - To downstream: {"sessionId":"7bbb45e40f21a03f7932c3dfe0149f45","status":0,"value":null}
14:33:39.572 INFO - Found handler: org.openqa.selenium.remote.server.ServicedSession@196f8c0
14:33:39.572 INFO - Handler thread for session 7bbb45e40f21a03f7932c3dfe0149f45 (chrome): Executing POST on /session/7bbb45e40f21a03f7932c3dfe0149f45/timeouts/implicit_wait (handler: ServicedSession)
14:33:39.572 INFO - To upstream: {"ms":20000}
14:33:39.572 INFO - To downstream: {"sessionId":"7bbb45e40f21a03f7932c3dfe0149f45","status":0,"value":null}
14:33:39.587 INFO - Found handler: org.openqa.selenium.remote.server.ServicedSession@196f8c0
14:33:39.587 INFO - Handler thread for session 7bbb45e40f21a03f7932c3dfe0149f45 (chrome): Executing POST on /session/7bbb45e40f21a03f7932c3dfe0149f45/elements (handler: ServicedSession)
14:33:39.587 INFO - To upstream: {"using":"css selector","value":"body"}
14:33:39.618 INFO - To downstream: {"sessionId":"7bbb45e40f21a03f7932c3dfe0149f45","status":0,"value":[{"ELEMENT":"0.61997583446133-1"}]}
14:33:39.634 INFO - Found handler: org.openqa.selenium.remote.server.ServicedSession@196f8c0
14:33:39.634 INFO - Handler thread for session 7bbb45e40f21a03f7932c3dfe0149f45 (chrome): Executing POST on /session/7bbb45e40f21a03f7932c3dfe0149f45/element/0.61997583446133-1/elements (handler: ServicedSession)
14:33:39.634 INFO - To upstream: {"using":"css selector","value":"#ctl00_TopazWebPartManager1_twp1922030610"}
14:33:39.728 INFO - To downstream: {"sessionId":"7bbb45e40f21a03f7932c3dfe0149f45","status":0,"value":[{"ELEMENT":"0.61997583446133-2"}]}
14:33:39.728 INFO - Found handler: org.openqa.selenium.remote.server.ServicedSession@196f8c0
14:33:39.728 INFO - Handler thread for session 7bbb45e40f21a03f7932c3dfe0149f45 (chrome): Executing GET on /session/7bbb45e40f21a03f7932c3dfe0149f45/element/0.61997583446133-2/displayed (handler: ServicedSession)
14:33:39.775 INFO - To downstream: {"sessionId":"7bbb45e40f21a03f7932c3dfe0149f45","status":0,"value":true}
14:33:39.790 INFO - Found handler: org.openqa.selenium.remote.server.ServicedSession@196f8c0
14:33:39.790 INFO - Handler thread for session 7bbb45e40f21a03f7932c3dfe0149f45 (chrome): Executing POST on /session/7bbb45e40f21a03f7932c3dfe0149f45/timeouts/implicit_wait (handler: ServicedSession)
14:33:39.790 INFO - To upstream: {"ms":20000}
14:33:39.790 INFO - To downstream: {"sessionId":"7bbb45e40f21a03f7932c3dfe0149f45","status":0,"value":null}
14:33:39.806 INFO - Found handler: org.openqa.selenium.remote.server.ServicedSession@196f8c0
14:33:39.806 INFO - Handler thread for session 7bbb45e40f21a03f7932c3dfe0149f45 (chrome): Executing POST on /session/7bbb45e40f21a03f7932c3dfe0149f45/element (handler: ServicedSession)
14:33:39.806 INFO - To upstream: {"using":"css selector","value":"body"}
14:33:39.900 INFO - To downstream: {"sessionId":"7bbb45e40f21a03f7932c3dfe0149f45","status":0,"value":{"ELEMENT":"0.61997583446133-1"}}
14:33:39.900 INFO - Found handler: org.openqa.selenium.remote.server.ServicedSession@196f8c0
14:33:39.900 INFO - Handler thread for session 7bbb45e40f21a03f7932c3dfe0149f45 (chrome): Executing POST on /session/7bbb45e40f21a03f7932c3dfe0149f45/element/0.61997583446133-1/element (handler: ServicedSession)
14:33:39.915 INFO - To upstream: {"using":"css selector","value":"#ctl00_TopazWebPartManager1_twp1922030610"}
14:33:39.993 INFO - To downstream: {"sessionId":"7bbb45e40f21a03f7932c3dfe0149f45","status":0,"value":{"ELEMENT":"0.61997583446133-2"}}
14:33:39.993 INFO - Found handler: org.openqa.selenium.remote.server.ServicedSession@196f8c0
14:33:39.993 INFO - Handler thread for session 7bbb45e40f21a03f7932c3dfe0149f45 (chrome): Executing GET on /session/7bbb45e40f21a03f7932c3dfe0149f45/element/0.61997583446133-2/text (handler: ServicedSession)
14:33:40.197 INFO - To downstream: {"sessionId":"7bbb45e40f21a03f7932c3dfe0149f45","status":0,"value":"Document Production\nDateFrom:  DateTo: \nFilename Date Created # Records Import Count Import Reject Count Import Status Import Date Processed Count Processed Status Processed Date Shipped Count Shipped Status Shipped Date Comments Turnaround"}
14:33:40.368 INFO - Found handler: org.openqa.selenium.remote.server.ServicedSession@196f8c0
14:33:40.368 INFO - Handler thread for session 7bbb45e40f21a03f7932c3dfe0149f45 (chrome): Executing DELETE on /session/7bbb45e40f21a03f7932c3dfe0149f45 (handler: ServicedSession)
14:33:41.087 INFO - To downstream: {"sessionId":"7bbb45e40f21a03f7932c3dfe0149f45","status":0,"value":null}
